<mxfile host="app.diagrams.net" modified="2021-01-08T08:09:16.707Z" agent="5.0 (Windows)" etag="LKj_jktBpzU4UTNsvt3Z" version="14.1.8" type="gitlab">
  <diagram id="s3deEMza1o67pfBbMY5D" name="Page-1">
    <mxGraphModel dx="2762" dy="883" grid="1" gridSize="10" guides="1" tooltips="1" connect="1" arrows="1" fold="1" page="1" pageScale="1" pageWidth="1100" pageHeight="850" math="0" shadow="0">
      <root>
        <mxCell id="0" />
        <mxCell id="1" parent="0" />
        <mxCell id="YGMnCIgJOz3go-Fw7Wiv-14" value="Hardware" style="rounded=0;whiteSpace=wrap;html=1;fontSize=15;labelBorderColor=none;dashed=1;strokeColor=#CCCCCC;strokeWidth=2;align=left;labelPosition=center;verticalLabelPosition=top;verticalAlign=bottom;fontStyle=3;fontColor=#999999;" parent="1" vertex="1">
          <mxGeometry x="735" y="260" width="275" height="180" as="geometry" />
        </mxCell>
        <mxCell id="lbYPUVO2H2piP3I1f4IK-5" value="&lt;span style=&quot;color: rgb(0 , 0 , 0) ; font-family: &amp;#34;helvetica&amp;#34; ; font-size: 13px ; font-style: normal ; font-weight: 400 ; letter-spacing: normal ; text-indent: 0px ; text-transform: none ; word-spacing: 0px ; background-color: rgb(255 , 255 , 255) ; display: inline ; float: none&quot;&gt;C code generation&lt;/span&gt;" style="edgeStyle=orthogonalEdgeStyle;rounded=0;orthogonalLoop=1;jettySize=auto;html=1;fontFamily=Helvetica;fontSize=13;fontColor=#000000;labelPosition=center;verticalLabelPosition=middle;align=center;verticalAlign=top;" parent="1" source="YGMnCIgJOz3go-Fw7Wiv-1" target="lbYPUVO2H2piP3I1f4IK-4" edge="1">
          <mxGeometry relative="1" as="geometry">
            <mxPoint as="offset" />
          </mxGeometry>
        </mxCell>
        <mxCell id="lbYPUVO2H2piP3I1f4IK-7" value="" style="edgeStyle=orthogonalEdgeStyle;rounded=0;orthogonalLoop=1;jettySize=auto;html=1;fontFamily=Helvetica;fontSize=13;fontColor=#000000;" parent="1" source="GoqTLSowmQgor_bQs0fY-2" target="lbYPUVO2H2piP3I1f4IK-6" edge="1">
          <mxGeometry relative="1" as="geometry" />
        </mxCell>
        <mxCell id="GoqTLSowmQgor_bQs0fY-2" value="BLDC drive" style="rounded=0;whiteSpace=wrap;html=1;shadow=0;fontFamily=Helvetica;fontSize=13;fontColor=#000000;" parent="1" vertex="1">
          <mxGeometry x="130" y="470" width="120" height="60" as="geometry" />
        </mxCell>
        <mxCell id="YGMnCIgJOz3go-Fw7Wiv-3" style="edgeStyle=orthogonalEdgeStyle;rounded=0;orthogonalLoop=1;jettySize=auto;html=1;exitX=1;exitY=0.5;exitDx=0;exitDy=0;" parent="1" source="GoqTLSowmQgor_bQs0fY-1" edge="1">
          <mxGeometry relative="1" as="geometry">
            <mxPoint x="130" y="340" as="targetPoint" />
          </mxGeometry>
        </mxCell>
        <mxCell id="GoqTLSowmQgor_bQs0fY-4" value="Git" style="text;html=1;strokeColor=none;fillColor=none;align=center;verticalAlign=middle;whiteSpace=wrap;rounded=0;shadow=0;fontFamily=Helvetica;fontSize=13;fontColor=#000000;" parent="1" vertex="1">
          <mxGeometry x="140" y="450" width="100" height="20" as="geometry" />
        </mxCell>
        <mxCell id="lbYPUVO2H2piP3I1f4IK-13" style="edgeStyle=orthogonalEdgeStyle;rounded=0;orthogonalLoop=1;jettySize=auto;html=1;exitX=0.5;exitY=1;exitDx=0;exitDy=0;fontFamily=Helvetica;fontSize=13;fontColor=#000000;entryX=0.5;entryY=0;entryDx=0;entryDy=0;" parent="1" source="lbYPUVO2H2piP3I1f4IK-4" target="lbYPUVO2H2piP3I1f4IK-9" edge="1">
          <mxGeometry relative="1" as="geometry">
            <mxPoint x="490" y="500" as="targetPoint" />
          </mxGeometry>
        </mxCell>
        <mxCell id="lbYPUVO2H2piP3I1f4IK-4" value="X2C.c&lt;br&gt;&lt;font style=&quot;font-size: 11px&quot;&gt;(specific core algorithm for the application)&lt;/font&gt;" style="rounded=0;whiteSpace=wrap;html=1;shadow=0;fontFamily=Helvetica;fontSize=13;fillColor=#ffe6cc;strokeColor=#d79b00;" parent="1" vertex="1">
          <mxGeometry x="520" y="305" width="190" height="70" as="geometry" />
        </mxCell>
        <mxCell id="lbYPUVO2H2piP3I1f4IK-10" value="" style="edgeStyle=orthogonalEdgeStyle;rounded=0;orthogonalLoop=1;jettySize=auto;html=1;fontFamily=Helvetica;fontSize=13;fontColor=#000000;" parent="1" source="lbYPUVO2H2piP3I1f4IK-6" target="lbYPUVO2H2piP3I1f4IK-9" edge="1">
          <mxGeometry relative="1" as="geometry" />
        </mxCell>
        <mxCell id="lbYPUVO2H2piP3I1f4IK-6" value="HAL for specific target" style="whiteSpace=wrap;html=1;rounded=0;shadow=0;fontSize=13;" parent="1" vertex="1">
          <mxGeometry x="330" y="470" width="120" height="60" as="geometry" />
        </mxCell>
        <mxCell id="lbYPUVO2H2piP3I1f4IK-22" style="edgeStyle=orthogonalEdgeStyle;rounded=0;orthogonalLoop=1;jettySize=auto;html=1;exitX=1;exitY=0.5;exitDx=0;exitDy=0;entryX=0;entryY=0.5;entryDx=0;entryDy=0;fontFamily=Helvetica;fontSize=13;fontColor=#000000;" parent="1" source="lbYPUVO2H2piP3I1f4IK-9" target="lbYPUVO2H2piP3I1f4IK-15" edge="1">
          <mxGeometry relative="1" as="geometry" />
        </mxCell>
        <mxCell id="lbYPUVO2H2piP3I1f4IK-9" value="&lt;div align=&quot;center&quot;&gt;Main.c&lt;/div&gt;" style="whiteSpace=wrap;html=1;rounded=0;shadow=0;fontSize=13;align=center;verticalAlign=top;labelPosition=center;verticalLabelPosition=middle;" parent="1" vertex="1">
          <mxGeometry x="520" y="440" width="190" height="120" as="geometry" />
        </mxCell>
        <mxCell id="lbYPUVO2H2piP3I1f4IK-11" value="X2C.c" style="rounded=0;whiteSpace=wrap;html=1;shadow=0;fontFamily=Helvetica;fontSize=13;fillColor=#ffe6cc;strokeColor=#d79b00;" parent="1" vertex="1">
          <mxGeometry x="555" y="480" width="120" height="60" as="geometry" />
        </mxCell>
        <mxCell id="lbYPUVO2H2piP3I1f4IK-23" value="" style="edgeStyle=orthogonalEdgeStyle;rounded=0;orthogonalLoop=1;jettySize=auto;html=1;fontFamily=Helvetica;fontSize=13;fontColor=#000000;" parent="1" source="lbYPUVO2H2piP3I1f4IK-15" target="lbYPUVO2H2piP3I1f4IK-17" edge="1">
          <mxGeometry relative="1" as="geometry">
            <Array as="points">
              <mxPoint x="870" y="420" />
              <mxPoint x="870" y="420" />
            </Array>
          </mxGeometry>
        </mxCell>
        <mxCell id="lbYPUVO2H2piP3I1f4IK-15" value="Compile and flash" style="whiteSpace=wrap;html=1;rounded=0;shadow=0;fontSize=13;verticalAlign=middle;" parent="1" vertex="1">
          <mxGeometry x="805" y="465" width="130" height="70" as="geometry" />
        </mxCell>
        <mxCell id="lbYPUVO2H2piP3I1f4IK-36" style="edgeStyle=orthogonalEdgeStyle;rounded=0;orthogonalLoop=1;jettySize=auto;html=1;exitX=0;exitY=0.5;exitDx=0;exitDy=0;endArrow=none;endFill=0;fontFamily=Helvetica;fontSize=13;fontColor=#000000;" parent="1" source="lbYPUVO2H2piP3I1f4IK-17" edge="1">
          <mxGeometry relative="1" as="geometry">
            <mxPoint x="760" y="339.83333333333337" as="targetPoint" />
          </mxGeometry>
        </mxCell>
        <mxCell id="YGMnCIgJOz3go-Fw7Wiv-5" style="edgeStyle=orthogonalEdgeStyle;rounded=0;orthogonalLoop=1;jettySize=auto;html=1;exitX=0.5;exitY=0;exitDx=0;exitDy=0;entryX=0.75;entryY=0;entryDx=0;entryDy=0;fontSize=13;align=center;startArrow=classic;startFill=1;" parent="1" source="lbYPUVO2H2piP3I1f4IK-17" target="YGMnCIgJOz3go-Fw7Wiv-1" edge="1">
          <mxGeometry relative="1" as="geometry">
            <Array as="points">
              <mxPoint x="870" y="220" />
              <mxPoint x="220" y="220" />
            </Array>
          </mxGeometry>
        </mxCell>
        <mxCell id="YGMnCIgJOz3go-Fw7Wiv-6" value="Serial / CAN / Ethernet" style="edgeLabel;html=1;align=center;verticalAlign=top;resizable=0;points=[];fontSize=13;" parent="YGMnCIgJOz3go-Fw7Wiv-5" vertex="1" connectable="0">
          <mxGeometry x="0.1475" y="-2" relative="1" as="geometry">
            <mxPoint as="offset" />
          </mxGeometry>
        </mxCell>
        <mxCell id="lbYPUVO2H2piP3I1f4IK-17" value="MCU" style="whiteSpace=wrap;html=1;rounded=0;shadow=0;fontSize=13;fontStyle=1;fillColor=#e1d5e7;strokeColor=#9673a6;" parent="1" vertex="1">
          <mxGeometry x="810" y="310" width="120" height="60" as="geometry" />
        </mxCell>
        <mxCell id="lbYPUVO2H2piP3I1f4IK-38" style="edgeStyle=orthogonalEdgeStyle;rounded=0;orthogonalLoop=1;jettySize=auto;html=1;exitX=0;exitY=0.5;exitDx=0;exitDy=0;exitPerimeter=0;endArrow=classic;endFill=1;fontFamily=Helvetica;fontSize=13;fontColor=#000000;" parent="1" source="lbYPUVO2H2piP3I1f4IK-24" edge="1">
          <mxGeometry relative="1" as="geometry">
            <mxPoint x="760" y="270" as="targetPoint" />
          </mxGeometry>
        </mxCell>
        <mxCell id="lbYPUVO2H2piP3I1f4IK-39" style="edgeStyle=orthogonalEdgeStyle;rounded=0;orthogonalLoop=1;jettySize=auto;html=1;exitX=1;exitY=0.5;exitDx=0;exitDy=0;exitPerimeter=0;entryX=1;entryY=0.845;entryDx=0;entryDy=0;entryPerimeter=0;endArrow=none;endFill=0;fontFamily=Helvetica;fontSize=13;fontColor=#000000;" parent="1" source="lbYPUVO2H2piP3I1f4IK-24" target="lbYPUVO2H2piP3I1f4IK-26" edge="1">
          <mxGeometry relative="1" as="geometry" />
        </mxCell>
        <mxCell id="lbYPUVO2H2piP3I1f4IK-24" value="" style="pointerEvents=1;verticalLabelPosition=bottom;shadow=0;dashed=0;align=center;html=1;verticalAlign=top;shape=mxgraph.electrical.resistors.resistor_1;rounded=0;fontFamily=Helvetica;fontSize=13;rotation=90;" parent="1" vertex="1">
          <mxGeometry x="735" y="310" width="50" height="10" as="geometry" />
        </mxCell>
        <mxCell id="lbYPUVO2H2piP3I1f4IK-29" style="edgeStyle=orthogonalEdgeStyle;rounded=0;orthogonalLoop=1;jettySize=auto;html=1;exitX=0;exitY=0.57;exitDx=0;exitDy=0;exitPerimeter=0;entryX=1;entryY=0.5;entryDx=0;entryDy=0;fontFamily=Helvetica;fontSize=13;fontColor=#000000;endArrow=none;endFill=0;" parent="1" source="lbYPUVO2H2piP3I1f4IK-25" target="lbYPUVO2H2piP3I1f4IK-17" edge="1">
          <mxGeometry relative="1" as="geometry" />
        </mxCell>
        <mxCell id="lbYPUVO2H2piP3I1f4IK-25" value="" style="verticalLabelPosition=bottom;shadow=0;dashed=0;align=center;html=1;verticalAlign=top;shape=mxgraph.electrical.opto_electronics.led_2;pointerEvents=1;rounded=0;fontFamily=Helvetica;fontSize=13;rotation=90;" parent="1" vertex="1">
          <mxGeometry x="948" y="370" width="50" height="35" as="geometry" />
        </mxCell>
        <mxCell id="lbYPUVO2H2piP3I1f4IK-40" style="edgeStyle=orthogonalEdgeStyle;rounded=0;orthogonalLoop=1;jettySize=auto;html=1;exitX=0;exitY=0.845;exitDx=0;exitDy=0;exitPerimeter=0;entryX=0.5;entryY=0;entryDx=0;entryDy=0;entryPerimeter=0;endArrow=none;endFill=0;fontFamily=Helvetica;fontSize=13;fontColor=#000000;" parent="1" source="lbYPUVO2H2piP3I1f4IK-26" target="lbYPUVO2H2piP3I1f4IK-37" edge="1">
          <mxGeometry relative="1" as="geometry" />
        </mxCell>
        <mxCell id="lbYPUVO2H2piP3I1f4IK-26" value="" style="pointerEvents=1;verticalLabelPosition=bottom;shadow=0;dashed=0;align=center;html=1;verticalAlign=top;shape=mxgraph.electrical.electro-mechanical.switch_disconnector;rounded=0;fontFamily=Helvetica;fontSize=13;rotation=-90;" parent="1" vertex="1">
          <mxGeometry x="737" y="382.5" width="39.47" height="10" as="geometry" />
        </mxCell>
        <mxCell id="lbYPUVO2H2piP3I1f4IK-27" value="" style="pointerEvents=1;verticalLabelPosition=bottom;shadow=0;dashed=0;align=center;html=1;verticalAlign=top;shape=mxgraph.electrical.signal_sources.protective_earth;rounded=0;fontFamily=Helvetica;fontSize=13;" parent="1" vertex="1">
          <mxGeometry x="958" y="411" width="25" height="20" as="geometry" />
        </mxCell>
        <mxCell id="lbYPUVO2H2piP3I1f4IK-37" value="" style="pointerEvents=1;verticalLabelPosition=bottom;shadow=0;dashed=0;align=center;html=1;verticalAlign=top;shape=mxgraph.electrical.signal_sources.protective_earth;rounded=0;fontFamily=Helvetica;fontSize=13;" parent="1" vertex="1">
          <mxGeometry x="747.5" y="411" width="25" height="20" as="geometry" />
        </mxCell>
        <mxCell id="YGMnCIgJOz3go-Fw7Wiv-8" style="edgeStyle=orthogonalEdgeStyle;rounded=0;orthogonalLoop=1;jettySize=auto;html=1;exitX=0.25;exitY=0;exitDx=0;exitDy=0;fontSize=13;align=center;entryX=0.5;entryY=1;entryDx=0;entryDy=0;" parent="1" source="YGMnCIgJOz3go-Fw7Wiv-1" target="YGMnCIgJOz3go-Fw7Wiv-7" edge="1">
          <mxGeometry relative="1" as="geometry">
            <Array as="points">
              <mxPoint x="160" y="200" />
              <mxPoint x="160" y="200" />
            </Array>
          </mxGeometry>
        </mxCell>
        <mxCell id="YGMnCIgJOz3go-Fw7Wiv-1" value="X2C Communicator" style="whiteSpace=wrap;html=1;aspect=fixed;labelPosition=center;verticalLabelPosition=middle;align=center;verticalAlign=middle;fontSize=13;fillColor=#d5e8d4;strokeColor=#82b366;fontStyle=1" parent="1" vertex="1">
          <mxGeometry x="130" y="280" width="120" height="120" as="geometry" />
        </mxCell>
        <mxCell id="YGMnCIgJOz3go-Fw7Wiv-10" style="edgeStyle=orthogonalEdgeStyle;rounded=0;orthogonalLoop=1;jettySize=auto;html=1;exitX=0;exitY=0.5;exitDx=0;exitDy=0;entryX=0.5;entryY=0;entryDx=0;entryDy=0;fontSize=13;align=center;" parent="1" source="YGMnCIgJOz3go-Fw7Wiv-9" target="YGMnCIgJOz3go-Fw7Wiv-1" edge="1">
          <mxGeometry relative="1" as="geometry" />
        </mxCell>
        <mxCell id="YGMnCIgJOz3go-Fw7Wiv-9" value="Real-time parameter read / write acces" style="rounded=0;whiteSpace=wrap;html=1;fontSize=13;" parent="1" vertex="1">
          <mxGeometry x="220" y="140" width="120" height="60" as="geometry" />
        </mxCell>
        <mxCell id="YGMnCIgJOz3go-Fw7Wiv-13" value="VERIFICATION" style="text;html=1;strokeColor=none;fillColor=none;align=center;verticalAlign=middle;whiteSpace=wrap;rounded=0;fontSize=13;fontStyle=1" parent="1" vertex="1">
          <mxGeometry x="480" y="200" width="40" height="20" as="geometry" />
        </mxCell>
        <mxCell id="YGMnCIgJOz3go-Fw7Wiv-15" value="" style="group" parent="1" vertex="1" connectable="0">
          <mxGeometry x="100" y="30" width="120" height="80" as="geometry" />
        </mxCell>
        <mxCell id="YGMnCIgJOz3go-Fw7Wiv-7" value="X2C Scope" style="rounded=0;whiteSpace=wrap;html=1;fontSize=13;fillColor=#f5f5f5;strokeColor=#666666;verticalAlign=bottom;fontColor=#333333;" parent="YGMnCIgJOz3go-Fw7Wiv-15" vertex="1">
          <mxGeometry width="120" height="80" as="geometry" />
        </mxCell>
        <mxCell id="YGMnCIgJOz3go-Fw7Wiv-11" value="" style="rounded=0;whiteSpace=wrap;html=1;fontSize=13;" parent="YGMnCIgJOz3go-Fw7Wiv-15" vertex="1">
          <mxGeometry x="10" y="10" width="100" height="40" as="geometry" />
        </mxCell>
        <mxCell id="YGMnCIgJOz3go-Fw7Wiv-17" value="" style="group" parent="1" vertex="1" connectable="0">
          <mxGeometry x="-120" y="290" width="120" height="100" as="geometry" />
        </mxCell>
        <mxCell id="GoqTLSowmQgor_bQs0fY-1" value="Core algorithm" style="rounded=0;whiteSpace=wrap;html=1;shadow=0;fontFamily=Helvetica;fontSize=13;strokeColor=#d79b00;fillColor=#ffe6cc;" parent="YGMnCIgJOz3go-Fw7Wiv-17" vertex="1">
          <mxGeometry y="20" width="120" height="60" as="geometry" />
        </mxCell>
        <mxCell id="YGMnCIgJOz3go-Fw7Wiv-12" value="Git" style="text;html=1;strokeColor=none;fillColor=none;align=center;verticalAlign=middle;whiteSpace=wrap;rounded=0;shadow=0;fontFamily=Helvetica;fontSize=13;fontColor=#000000;" parent="YGMnCIgJOz3go-Fw7Wiv-17" vertex="1">
          <mxGeometry x="10" width="100" height="20" as="geometry" />
        </mxCell>
        <mxCell id="YGMnCIgJOz3go-Fw7Wiv-19" value="" style="endArrow=classic;html=1;fontSize=15;fontColor=#999999;align=center;strokeWidth=2;" parent="1" edge="1">
          <mxGeometry width="50" height="50" relative="1" as="geometry">
            <mxPoint x="-120" y="640" as="sourcePoint" />
            <mxPoint x="1010" y="640" as="targetPoint" />
          </mxGeometry>
        </mxCell>
        <mxCell id="GoqTLSowmQgor_bQs0fY-3" value="&lt;div&gt;Scilab Xcos /&lt;br&gt;&lt;/div&gt;&lt;div&gt;Matlab Simulink&lt;br&gt;&lt;/div&gt;" style="text;html=1;strokeColor=none;fillColor=none;align=center;verticalAlign=bottom;whiteSpace=wrap;rounded=0;shadow=0;fontFamily=Helvetica;fontSize=13;fontColor=#000000;" parent="1" vertex="1">
          <mxGeometry x="-110" y="390" width="100" height="20" as="geometry" />
        </mxCell>
        <mxCell id="GFQA5e9NL64N-8tYM9Dw-2" value="" style="edgeStyle=orthogonalEdgeStyle;rounded=0;orthogonalLoop=1;jettySize=auto;html=1;" edge="1" parent="1" source="GFQA5e9NL64N-8tYM9Dw-1" target="lbYPUVO2H2piP3I1f4IK-15">
          <mxGeometry relative="1" as="geometry" />
        </mxCell>
        <mxCell id="GFQA5e9NL64N-8tYM9Dw-1" value="Configuration file" style="rounded=0;whiteSpace=wrap;html=1;shadow=0;fontFamily=Helvetica;fontSize=13;fontColor=#000000;" vertex="1" parent="1">
          <mxGeometry x="810" y="570" width="120" height="60" as="geometry" />
        </mxCell>
      </root>
    </mxGraphModel>
  </diagram>
</mxfile>
